module github.com/varbhat/exatorrent

go 1.17

require (
	crawshaw.io/sqlite v0.3.3-0.20210127221821-98b1f83c5508
	github.com/anacrolix/chansync v0.3.0
	github.com/anacrolix/go-libutp v1.2.0
	github.com/anacrolix/log v0.13.1
	github.com/anacrolix/torrent v1.41.0
	github.com/google/uuid v1.3.0
	github.com/gorilla/websocket v1.5.0
	github.com/jackc/pgx/v4 v4.15.0
	github.com/pbnjay/memory v0.0.0-20210728143218-7b4eea64cf58
	github.com/shirou/gopsutil v3.21.11+incompatible
	golang.org/x/crypto v0.0.0-20220313003712-b769efc7c000
	golang.org/x/time v0.0.0-20220224211638-0e9765cccd65
)

require (
	github.com/RoaringBitmap/roaring v0.9.4 // indirect
	github.com/StackExchange/wmi v1.2.1 // indirect
	github.com/anacrolix/confluence v1.11.0 // indirect
	github.com/anacrolix/dht/v2 v2.16.1 // indirect
	github.com/anacrolix/envpprof v1.2.1 // indirect
	github.com/anacrolix/missinggo v1.3.0 // indirect
	github.com/anacrolix/missinggo/perf v1.0.0 // indirect
	github.com/anacrolix/missinggo/v2 v2.5.3 // indirect
	github.com/anacrolix/mmsg v1.0.0 // indirect
	github.com/anacrolix/multiless v0.3.0 // indirect
	github.com/anacrolix/stm v0.3.0 // indirect
	github.com/anacrolix/sync v0.4.0 // indirect
	github.com/anacrolix/upnp v0.1.3-0.20220123035249-922794e51c96 // indirect
	github.com/anacrolix/utp v0.1.0 // indirect
	github.com/benbjohnson/immutable v0.3.0 // indirect
	github.com/bits-and-blooms/bitset v1.2.1 // indirect
	github.com/bradfitz/iter v0.0.0-20191230175014-e8f45d346db8 // indirect
	github.com/davecgh/go-spew v1.1.1 // indirect
	github.com/dustin/go-humanize v1.0.0 // indirect
	github.com/edsrzf/mmap-go v1.1.0 // indirect
	github.com/elliotchance/orderedmap v1.4.0 // indirect
	github.com/go-ole/go-ole v1.2.6 // indirect
	github.com/google/btree v1.0.1 // indirect
	github.com/google/go-cmp v0.5.6 // indirect
	github.com/huandu/xstrings v1.3.2 // indirect
	github.com/jackc/chunkreader/v2 v2.0.1 // indirect
	github.com/jackc/pgconn v1.11.0 // indirect
	github.com/jackc/pgio v1.0.0 // indirect
	github.com/jackc/pgpassfile v1.0.0 // indirect
	github.com/jackc/pgproto3/v2 v2.2.0 // indirect
	github.com/jackc/pgservicefile v0.0.0-20200714003250-2b9c44734f2b // indirect
	github.com/jackc/pgtype v1.10.0 // indirect
	github.com/jackc/puddle v1.2.1 // indirect
	github.com/mattn/go-isatty v0.0.14 // indirect
	github.com/mschoch/smat v0.2.0 // indirect
	github.com/pion/datachannel v1.5.2 // indirect
	github.com/pion/dtls/v2 v2.1.3 // indirect
	github.com/pion/ice/v2 v2.2.2 // indirect
	github.com/pion/interceptor v0.1.9 // indirect
	github.com/pion/logging v0.2.2 // indirect
	github.com/pion/mdns v0.0.5 // indirect
	github.com/pion/randutil v0.1.0 // indirect
	github.com/pion/rtcp v1.2.9 // indirect
	github.com/pion/rtp v1.7.4 // indirect
	github.com/pion/sctp v1.8.2 // indirect
	github.com/pion/sdp/v3 v3.0.4 // indirect
	github.com/pion/srtp/v2 v2.0.5 // indirect
	github.com/pion/stun v0.3.5 // indirect
	github.com/pion/transport v0.13.0 // indirect
	github.com/pion/turn/v2 v2.0.8 // indirect
	github.com/pion/udp v0.1.1 // indirect
	github.com/pion/webrtc/v3 v3.1.24 // indirect
	github.com/pkg/errors v0.9.1 // indirect
	github.com/remyoudompheng/bigfft v0.0.0-20200410134404-eec4a21b6bb0 // indirect
	github.com/rs/dnscache v0.0.0-20211102005908-e0241e321417 // indirect
	github.com/ryszard/goskiplist v0.0.0-20150312221310-2dfbae5fcf46 // indirect
	github.com/spaolacci/murmur3 v1.1.0 // indirect
	github.com/tklauser/go-sysconf v0.3.10 // indirect
	github.com/tklauser/numcpus v0.4.0 // indirect
	github.com/willf/bitset v1.1.11 // indirect
	github.com/willf/bloom v2.0.3+incompatible // indirect
	github.com/yusufpapurcu/wmi v1.2.2 // indirect
	go.etcd.io/bbolt v1.3.6 // indirect
	golang.org/x/net v0.0.0-20220225172249-27dd8689420f // indirect
	golang.org/x/sync v0.0.0-20210220032951-036812b2e83c // indirect
	golang.org/x/sys v0.0.0-20220310020820-b874c991c1a5 // indirect
	golang.org/x/text v0.3.7 // indirect
	golang.org/x/xerrors v0.0.0-20200804184101-5ec99f83aff1 // indirect
	modernc.org/libc v1.14.11 // indirect
	modernc.org/mathutil v1.4.1 // indirect
	modernc.org/memory v1.0.6 // indirect
	modernc.org/sqlite v1.15.0 // indirect
	zombiezen.com/go/sqlite v0.9.2 // indirect
)
